{
  "_id": 52134156,
  "name": "LayoutTemplates",
  "authors": [
    {
      "first_name": "Ivan",
      "last_name": "Pecikoza",
      "email": "ivan.pecikoza.19@singimail.rs",
      "web_page": "INVALID URL"
    }
  ],
  "version": "1.0.0",
  "core_version": "1.0.0",
  "extension_point": {
    "_id": 52134156,
    "name": "LayoutTemplates"
  },
  "licence": "MIT",
  "short_overview": "",
  "description": {
    "path": "description.txt"
  },
  "labels": [
    {
      "color": "",
      "text": "",
      "icon": ""
    }
  ],
  "dependencies": [],
  "web_page": "/",
  "icon": ""
}